…
``` r
demographic
```

    ## # A tibble: 228 × 5
    ##    seqn  sex      age   bmi education             
    ##    <chr> <chr>  <dbl> <dbl> <chr>                 
    ##  1 62161 male      22  23.3 High school equivalent
    ##  2 62164 female    44  23.2 More than high school 
    ##  3 62169 male      21  20.1 High school equivalent
    ##  4 62174 male      80  33.9 More than high school 
    ##  5 62177 male      51  20.1 High school equivalent
    ##  6 62178 male      80  28.5 High school equivalent
    ##  7 62180 male      35  27.9 More than high school 
    ##  8 62184 male      26  22.1 High school equivalent
    ##  9 62189 female    30  22.4 More than high school 
    ## 10 62199 male      57  28   More than high school 
    ## # ℹ 218 more rows
…
    ## Rows: 250 Columns: 1441
    ## ── Column specification ────────────────────────────────────────────────────────
    ## Delimiter: ","
    ## dbl (1441): SEQN, min1, min2, min3, min4, min5, min6, min7, min8, min9, min1...
    ## 
    ## ℹ Use `spec()` to retrieve the full column specification for this data.
    ## ℹ Specify the column types or set `show_col_types = FALSE` to quiet this message.

``` r
accelerometers
```

    ## # A tibble: 250 × 1,441
    ##    seqn   min1  min2  min3  min4   min5   min6  min7   min8    min9  min10
    ##    <chr> <dbl> <dbl> <dbl> <dbl>  <dbl>  <dbl> <dbl>  <dbl>   <dbl>  <dbl>
    ##  1 62161 1.11  3.12  1.47  0.938 1.60   0.145  2.10  0.509   1.63   1.20  
    ##  2 62164 1.92  1.67  2.38  0.935 2.59   5.22   2.39  4.90    1.97   3.13  
    ##  3 62169 5.85  5.18  4.76  6.48  6.85   7.24   6.12  7.48    5.47   6.49  
    ##  4 62174 5.42  3.48  3.72  3.81  6.85   4.45   0.561 1.61    0.698  2.72  
    ##  5 62177 6.14  8.06  9.99  6.60  4.57   2.78   7.10  7.25   10.1    7.49  
    ##  6 62178 0.167 0.429 0.131 1.20  0.0796 0.0487 0.106 0.0653  0.0564 0.0639
    ##  7 62180 0.039 0     0     0     0.369  0.265  0.506 0.638   0      0.011 
    ##  8 62184 1.55  2.81  3.86  4.76  6.10   7.61   4.74  6.73    5.42   4.24  
    ##  9 62186 3.08  2.54  2.63  2.12  1.14   1.68   2.84  2.72    2.13   2.18  
    ## 10 62189 2.81  0.195 0.163 0     0.144  0.180  0.870 0.214   0      0     
    ## # ℹ 240 more rows
    ## # ℹ 1,430 more variables: min11 <dbl>, min12 <dbl>, min13 <dbl>, min14 <dbl>,
    ## #   min15 <dbl>, min16 <dbl>, min17 <dbl>, min18 <dbl>, min19 <dbl>,
    ## #   min20 <dbl>, min21 <dbl>, min22 <dbl>, min23 <dbl>, min24 <dbl>,
    ## #   min25 <dbl>, min26 <dbl>, min27 <dbl>, min28 <dbl>, min29 <dbl>,
    ## #   min30 <dbl>, min31 <dbl>, min32 <dbl>, min33 <dbl>, min34 <dbl>,
    ## #   min35 <dbl>, min36 <dbl>, min37 <dbl>, min38 <dbl>, min39 <dbl>, …

``` r
merged_dataset = left_join(demographic, accelerometers, "seqn")
merged_dataset
```

    ## # A tibble: 228 × 1,445
    ##    seqn  sex      age   bmi education     min1   min2   min3  min4   min5   min6
    ##    <chr> <chr>  <dbl> <dbl> <chr>        <dbl>  <dbl>  <dbl> <dbl>  <dbl>  <dbl>
    ##  1 62161 male      22  23.3 High school… 1.11  3.12   1.47   0.938 1.60   0.145 
    ##  2 62164 female    44  23.2 More than h… 1.92  1.67   2.38   0.935 2.59   5.22  
    ##  3 62169 male      21  20.1 High school… 5.85  5.18   4.76   6.48  6.85   7.24  
    ##  4 62174 male      80  33.9 More than h… 5.42  3.48   3.72   3.81  6.85   4.45  
    ##  5 62177 male      51  20.1 High school… 6.14  8.06   9.99   6.60  4.57   2.78  
    ##  6 62178 male      80  28.5 High school… 0.167 0.429  0.131  1.20  0.0796 0.0487
    ##  7 62180 male      35  27.9 More than h… 0.039 0      0      0     0.369  0.265 
    ##  8 62184 male      26  22.1 High school… 1.55  2.81   3.86   4.76  6.10   7.61  
    ##  9 62189 female    30  22.4 More than h… 2.81  0.195  0.163  0     0.144  0.180 
    ## 10 62199 male      57  28   More than h… 0.031 0.0359 0.0387 0.079 0.109  0.262 
    ## # ℹ 218 more rows
    ## # ℹ 1,434 more variables: min7 <dbl>, min8 <dbl>, min9 <dbl>, min10 <dbl>,
    ## #   min11 <dbl>, min12 <dbl>, min13 <dbl>, min14 <dbl>, min15 <dbl>,
    ## #   min16 <dbl>, min17 <dbl>, min18 <dbl>, min19 <dbl>, min20 <dbl>,
    ## #   min21 <dbl>, min22 <dbl>, min23 <dbl>, min24 <dbl>, min25 <dbl>,
    ## #   min26 <dbl>, min27 <dbl>, min28 <dbl>, min29 <dbl>, min30 <dbl>,
    ## #   min31 <dbl>, min32 <dbl>, min33 <dbl>, min34 <dbl>, min35 <dbl>, …
…
``` r
# Combining and cleaning datasets
combined_data <- bind_rows(
  Jan_2020 %>% mutate(period = "Jan_2020"),
  Jul_2020 %>% mutate(period = "Jul_2020"),
  Jan_2024 %>% mutate(period = "Jan_2024"),
  Jul_2024 %>% mutate(period = "Jul_2024")
)
combined_data
```

    ## # A tibble: 99,485 × 8
    ##    ride_id   rideable_type weekdays duration start_station_name end_station_name
    ##    <chr>     <chr>         <chr>       <dbl> <chr>              <chr>           
    ##  1 4BE06CB3… classic_bike  Tuesday     15.3  Columbus Ave & W … E 53 St & Madis…
    ##  2 26886E03… classic_bike  Wednesd…     5.31 2 Ave & E 96 St    1 Ave & E 110 St
    ##  3 24DC5606… classic_bike  Friday       9.69 Columbia St & Riv… Grand St & Eliz…
    ##  4 EEDC1053… classic_bike  Sunday       7.00 W 84 St & Columbu… Columbus Ave & …
    ##  5 2CD4BD4C… classic_bike  Friday       2.85 Forsyth St & Broo… Suffolk St & St…
    ##  6 E18682F9… classic_bike  Sunday      25.5  Allen St & Hester… Atlantic Ave & …
    ##  7 B9B2E896… classic_bike  Sunday       3.65 Lafayette St & Je… Washington Pl &…
    ##  8 DEF8F504… classic_bike  Sunday      38.3  28 Ave & 44 St     Broadway & Kosc…
    ##  9 17D44DA9… classic_bike  Thursday    38.5  Barrow St & Hudso… Emerson Pl & My…
    ## 10 0FD113A3… classic_bike  Tuesday      6.52 Carlton Ave & Par… Emerson Pl & My…
    ## # ℹ 99,475 more rows
    ## # ℹ 2 more variables: member_casual <chr>, period <chr>
…
